hello,n/a,1570025724
hello,n/a,1570025811
hello,n/a,1570025922
hello,n/a,1570025997
hello,n/a,1570026265
hello,n/a,1570026298
my,n/a,1570027322
name,n/a,1570027322
is,n/a,1570027322
my,n/a,1570027376
name,n/a,1570027376
is,n/a,1570027376
